[Adblock Plus 2.0]
! Expires: 1 days
! Title: LORPonyList
! Version: 201603181014
! Homepage: https://github.com/batekman/scripts/issues
||gravatar.com/avatar/cfc45ad20885c96491a604e70155efdf?*
||gravatar.com/avatar/d92f942edf1c48cc2300c907ef15c33f?*
||linux.org.ru/photos/101028:-1564753164.png
||linux.org.ru/photos/109332:184124422.png
||linux.org.ru/photos/109958:-1287174882.jpg
||linux.org.ru/photos/111698:78496478.gif
||linux.org.ru/photos/113907:-651519664.png
||linux.org.ru/photos/114427:-736741445.jpg
||linux.org.ru/photos/115069:-443917054.jpg
||linux.org.ru/photos/115474:810175810.png
||linux.org.ru/photos/115535:1979784952.jpg
||linux.org.ru/photos/19195:-336851757.png
||linux.org.ru/photos/39025:119411059.png
||linux.org.ru/photos/43545:962088615.jpg
||linux.org.ru/photos/81231:-1651932200.png
||linux.org.ru/photos/91198:213837671.jpg
||linux.org.ru/photos/98073:-1697215152.png
||linux.org.ru/photos/98291:1773112619.png
||linux.org.ru/photos/10500:-2030856254.png
||linux.org.ru/photos/107327:157927581.jpg
||linux.org.ru/photos/107564:-1473060403.gif
||linux.org.ru/photos/110490:1417985031.jpg
||linux.org.ru/photos/113340:-113992385.png
||linux.org.ru/photos/114201:479724453.gif
||linux.org.ru/photos/114521:452770175.png
||linux.org.ru/photos/115790:629372843.png
||linux.org.ru/photos/19857:-68580526.png
||linux.org.ru/photos/20055:-378335473.png
||linux.org.ru/photos/59238:372423015.png
||linux.org.ru/photos/65880:594940799.jpg
||linux.org.ru/photos/66350:-1083732297.png
||linux.org.ru/photos/80450:-633830453.png
||linux.org.ru/photos/82045:146078068.png
||linux.org.ru/photos/82704:132737704.jpg
||linux.org.ru/photos/110455:-54432020.png
||linux.org.ru/photos/94257:166506968.jpg
||linux.org.ru/photos/93387:1104405925.png
||linux.org.ru/photos/97191:-1430488057.png
||linux.org.ru/photos/26743:848394220.jpg
||linux.org.ru/photos/24345:-1481854387.jpg
||linux.org.ru/photos/105178:*
||linux.org.ru/photos/114734:1020083736.png
||linux.org.ru/photos/115310:1794540544.png
||linux.org.ru/photos/48985:-726580331.png
||linux.org.ru/photos/116167:*
||linux.org.ru/photos/106683:733107230.png
||linux.org.ru/photos/61854:2056384814.jpg
||linux.org.ru/photos/108412:*
||linux.org.ru/photos/70664:-612500679.jpg
||linux.org.ru/photos/101564:-540182197.png
||linux.org.ru/photos/69323:1227496371.png
||linux.org.ru/photos/113465:-1730954113.png
||linux.org.ru/photos/61826:1612350940.png
||linux.org.ru/photos/110490:-1095727160.jpg
||linux.org.ru/photos/106027:*
||linux.org.ru/photos/61633:*
||linux.org.ru/photos/45040:1689393297.png
||linux.org.ru/photos/43545:1550784806.png
||linux.org.ru/photos/107521:*
||linux.org.ru/photos/73441:*
||linux.org.ru/photos/36291:*
||linux.org.ru/photos/28878:-1715861475.png
||linux.org.ru/photos/82201:-950697838.jpg
||linux.org.ru/photos/104246:-1901069375.png
||linux.org.ru/photos/111881:-74285312.jpg
||linux.org.ru/photos/48447:14951230.jpg
||linux.org.ru/photos/81109:1849061610.jpg
||gravatar.com/avatar/3dd9ef6818070177f9d152c22e32f860?*
||linux.org.ru/photos/110687:*
||linux.org.ru/photos/115774:575174914.jpg
||linux.org.ru/photos/19857:-1542843280.png
||linux.org.ru/photos/109010:1050586821.jpg
||gravatar.com/avatar/1598aef0e4604fbe428a9a2fc79d40e1?*
||linux.org.ru/photos/59518:-1580438643.gif
||linux.org.ru/photos/125504:-1678167053.png
||linux.org.ru/photos/48946:-86220628.jpg
||linux.org.ru/photos/115350:*
||gravatar.com/avatar/e4b81b55a118f32f2c92a711133e141b?*
||linux.org.ru/photos/21495:-1379561140.gif
||linux.org.ru/photos/105352:-229007282.jpg
||linux.org.ru/photos/121688:1090482570.png
||linux.org.ru/photos/88472:-1166499085.jpg
||linux.org.ru/photos/48946:1176728961.jpg
||linux.org.ru/photos/126940:-927847802.png
||linux.org.ru/photos/66350:1427012140.png
||linux.org.ru/photos/37815:-1870697135.png
||linux.org.ru/photos/72086:-1532418683.png
||linux.org.ru/photos/95202:-58284849.jpg
||linux.org.ru/photos/95202:-2064104990.gif
||linux.org.ru/photos/80450:1178297477.png
||gravatar.com/avatar/2747f7902198bbb7debf7865f547e30d?*
||gravatar.com/avatar/d5bd6691a73fb2668a6076d4cc07c38f?*
||linux.org.ru/photos/130173:4681201.png
||linux.org.ru/photos/130173:-1861122260.jpg
||linux.org.ru/photos/130218:755489469.png
||linux.org.ru/photos/66069:-1008545487.png
||linux.org.ru/photos/130218:1910107409.png
||linux.org.ru/photos/40909:1316552111.png
||linux.org.ru/photos/101957:-507149858.png
||linux.org.ru/photos/132957:1453471705.png
||linux.org.ru/photos/61563:550270471.png
||linux.org.ru/photos/131012:*
||linux.org.ru/photos/132191:1808011214.png
||linux.org.ru/photos/120394:*
||linux.org.ru/photos/59871:898303054.png
||linux.org.ru/photos/9745:-1918462458.png
||linux.org.ru/photos/9745:1165112697.png
||linux.org.ru/photos/122914:-463240254.png
||linux.org.ru/photos/93387:1104405925.png
||linux.org.ru/photos/129062:*
||linux.org.ru/photos/106531:1546771620.jpg
||linux.org.ru/photos/37815:-608590251.png
||linux.org.ru/photos/131100:1800383974.png
||linux.org.ru/photos/70610:-266067770.png
